<svg width="29" height="21" viewBox="0 0 29 21" fill="none" xmlns="http://www.w3.org/2000/svg">
<path d="M23.9942 0.511719H4.91272C4.41039 0.511719 4.00533 0.917928 4.00533 1.42025C4.00533 1.92258 4.41039 2.3265 4.91272 2.3265H23.9942C25.2666 2.3265 26.3022 3.36433 26.3022 4.63674V4.72484H4.91272C4.41039 4.72484 4.00533 5.12876 4.00533 5.63109C4.00533 6.13227 4.41039 6.53848 4.91272 6.53848H26.3022V16.3641C26.3022 17.6354 25.2666 18.6732 23.9942 18.6732H5.00083C3.72842 18.6732 2.69288 17.6354 2.69288 16.3641V4.54634C2.69288 4.04402 2.28667 3.63781 1.78549 3.63781C1.28316 3.63781 0.876953 4.04402 0.876953 4.54634V16.3641C0.876953 18.6389 2.7272 20.488 5.00083 20.488H23.9942C26.2678 20.488 28.1192 18.6389 28.1192 16.3641V4.63674C28.1192 2.36197 26.2678 0.511719 23.9942 0.511719V0.511719ZM23.4644 13.4738C23.9656 13.4738 24.373 13.0676 24.373 12.5664C24.373 12.0629 23.9656 11.659 23.4644 11.659H14.4535C13.9511 11.659 13.5449 12.0629 13.5449 12.5664C13.5449 13.0676 13.9511 13.4738 14.4535 13.4738H23.4644ZM6.26522 11.159H9.08008V13.9727H6.26522V11.159V11.159ZM9.98747 15.7897C10.4898 15.7897 10.896 15.3835 10.896 14.8801V10.2504C10.896 9.74924 10.4898 9.34189 9.98747 9.34189H5.35783C4.85551 9.34189 4.45044 9.74924 4.45044 10.2504V14.8801C4.45044 15.3835 4.85551 15.7897 5.35783 15.7897H9.98747Z" fill="#3B4144"/>
<path fill-rule="evenodd" clip-rule="evenodd" d="M24.3727 12.5663C24.3727 13.0675 23.9654 13.4737 23.4642 13.4737H14.4532C13.9509 13.4737 13.5447 13.0675 13.5447 12.5663C13.5447 12.0628 13.9509 11.6589 14.4532 11.6589H23.4642C23.9654 11.6589 24.3727 12.0628 24.3727 12.5663ZM9.07983 11.1589H6.26497V13.9726H9.07983V11.1589ZM10.8958 14.88C10.8958 15.3834 10.4895 15.7896 9.98722 15.7896H5.35759C4.85526 15.7896 4.4502 15.3834 4.4502 14.88V10.2503C4.4502 9.74915 4.85526 9.3418 5.35759 9.3418H9.98722C10.4895 9.3418 10.8958 9.74915 10.8958 10.2503V14.88Z" fill="#FD4209"/>
</svg>
