<svg width="70" height="70" viewBox="0 0 70 70" fill="none" xmlns="http://www.w3.org/2000/svg">
<circle cx="35" cy="35" r="35" fill="white"/>
<path d="M53.3594 20.6716C52.6562 19.0779 51.375 17.8435 49.75 17.2029C48.125 16.5622 46.3437 16.6091 44.75 17.3122C44 17.6404 43.3281 18.1091 42.75 18.6872C42.4531 18.9841 42.4531 19.4841 42.75 19.781C43.0469 20.0779 43.5469 20.0779 43.8437 19.781C44.2812 19.3435 44.7969 18.9841 45.375 18.7341C46.5937 18.2029 47.9531 18.1716 49.2031 18.656C50.4531 19.1404 51.4219 20.0779 51.9687 21.2966C53.0781 23.8279 51.9219 26.781 49.4062 27.8904C48.8281 28.1404 48.2187 28.281 47.5937 28.3122C47.1719 28.3279 46.8437 28.6872 46.8594 29.1091C46.875 29.531 47.2187 29.8591 47.625 29.8591C47.6406 29.8591 47.6406 29.8591 47.6562 29.8591C48.4687 29.8279 49.2656 29.6404 50.0312 29.3122C53.2969 27.8435 54.8125 23.9685 53.3594 20.6716Z" fill="#3B4144"/>
<path d="M37.3125 32.7654C38.0781 33.0622 38.8906 33.2185 39.6875 33.2185C40.5781 33.2185 41.4688 33.031 42.3125 32.656C43.9063 31.9529 45.1406 30.6716 45.7813 29.0466C46.4219 27.4216 46.375 25.6404 45.6719 24.0466C44.9688 22.4529 43.6875 21.2185 42.0625 20.5779C40.4375 19.9372 38.6562 19.9841 37.0625 20.6872C35.4687 21.3904 34.2344 22.6716 33.5937 24.2966C32.9531 25.9216 33 27.7029 33.7031 29.2966C34.4062 30.906 35.6875 32.1247 37.3125 32.7654ZM35.0312 24.8591C35.5156 23.6091 36.4531 22.6404 37.6719 22.0935C38.3125 21.8122 39 21.6716 39.6719 21.6716C40.2812 21.6716 40.9062 21.781 41.4844 22.0154C42.7344 22.4997 43.7031 23.4372 44.25 24.656C44.7813 25.8747 44.8125 27.2341 44.3281 28.4841C43.8438 29.7341 42.9063 30.7029 41.6875 31.2498C40.4687 31.781 39.1094 31.8122 37.8594 31.3279C36.6094 30.8435 35.6406 29.906 35.0937 28.6872C34.5781 27.4529 34.5469 26.1091 35.0312 24.8591Z" fill="#FD4209"/>
<path d="M28.078 28.3583C28.1718 28.3583 28.2655 28.3427 28.3437 28.3114C29.2499 27.9677 30.1874 27.7177 31.1562 27.577C31.578 27.5145 31.8593 27.1239 31.7968 26.702C31.7343 26.2802 31.3437 25.9989 30.9218 26.0614C29.8593 26.2177 28.8124 26.4989 27.7968 26.8739C27.4062 27.0302 27.203 27.4677 27.3437 27.8583C27.4687 28.1552 27.7655 28.3583 28.078 28.3583Z" fill="#3B4144"/>
<path d="M48.0781 35.7031C47.7656 34.5156 47.2344 33.3594 46.5156 32.2812C46.2812 31.9219 45.7969 31.8281 45.4531 32.0625C45.0937 32.2969 45 32.7812 45.2344 33.125C45.8594 34.0625 46.3125 35.0625 46.5937 36.0938C46.6719 36.375 46.7344 36.6562 46.7812 36.9375C47.3594 40.1562 46.3281 43.5312 44.1094 45.7656C43.8437 46.0469 43.6406 46.3906 43.5625 46.7344L42.125 51.7031H38.9062L38.5312 50.2344C38.4375 49.8906 38.1406 49.6562 37.7812 49.6562L29.5469 49.625C29.2031 49.625 28.8906 49.8594 28.7969 50.2031L28.4062 51.7031H25.2031L24.2812 48.4531C24.0937 47.8125 23.6094 47.2344 23.0156 46.9844C21.0625 46.0938 19.3281 45.0625 17.8281 43.9375C17.7031 43.8438 17.625 43.6875 17.625 43.5156L17.6406 37.4375L18.4688 37.4219C18.7031 37.4219 18.9219 37.2969 19.0781 37.1094L22.375 32.7344C22.3906 32.7031 22.4219 32.6719 22.4375 32.6406C22.6406 32.2813 22.5 31.9375 22.3437 31.6094C22.3125 31.5156 22.2656 31.4219 22.2344 31.3281L22.1719 31.1875C22.0469 30.8906 21.9062 30.5938 21.7656 30.3125C21.5156 29.7812 21.2344 29.25 20.9531 28.7344C20.9219 28.6719 20.8906 28.625 20.8594 28.5625C20.9062 28.5625 20.9531 28.5625 21.0156 28.5625C21.0312 28.5625 21.0469 28.5625 21.0781 28.5625C21.8594 28.5625 22.5781 28.6719 23.2344 28.9062C23.4219 28.9688 23.8125 29.1563 23.9062 29.2031C23.9062 29.2031 23.9219 29.2031 23.9219 29.2188C24.0625 29.2969 24.8906 29.7812 25.0781 29.9219C25.9062 30.5469 26.6094 31.375 27.0781 32.3281C27.2656 32.7031 27.7344 32.8594 28.1094 32.6719C28.4844 32.4844 28.6406 32.0156 28.4531 31.6406C27.875 30.4844 27.0312 29.4687 26 28.6875C25.7344 28.4844 24.9219 28.0156 24.7031 27.8906C24.5 27.75 24.2031 27.6094 23.7344 27.4531C22.9375 27.1719 22.0781 27.0312 21.1406 27.0312C20.9531 27.0312 20.7656 27.0312 20.6094 27.0469L20.3125 27.0625C20.2656 27.0625 20.2656 27.0625 20.2188 27.0781C20.1875 27.0781 20.1562 27.0938 20.125 27.0938C19.7187 27.1875 19.375 27.4688 19.2031 27.875C19.0469 28.2813 19.2187 28.6719 19.2812 28.8437C19.3281 29 19.4062 29.1406 19.5156 29.3281C19.5156 29.3437 19.5469 29.375 19.5625 29.3906L19.6094 29.4687C19.875 29.9687 20.1406 30.4688 20.3906 30.9844C20.5156 31.2656 20.6562 31.5312 20.7656 31.7969L20.8281 31.9531C20.8594 32.0156 20.8906 32.0938 20.9062 32.1563L18.0937 35.8906L16.875 35.9062C16.4531 35.9062 16.125 36.25 16.125 36.6719L16.0938 43.5312C16.0938 44.1875 16.3906 44.7969 16.9062 45.1875C18.4844 46.3906 20.3281 47.4688 22.3906 48.4219C22.5781 48.5 22.75 48.7031 22.7969 48.9062L23.8906 52.7031C23.9844 53.0312 24.2812 53.2656 24.625 53.2656H29.0156C29.3594 53.2656 29.6719 53.0312 29.7656 52.6875L30.1562 51.1875L37.1875 51.2188L37.5625 52.6875C37.6562 53.0312 37.9531 53.2656 38.3125 53.2656H42.7187C43.0625 53.2656 43.3594 53.0312 43.4531 52.7031L45.0625 47.1406C45.0937 47.0469 45.1406 46.9375 45.2187 46.8594C47.7812 44.2969 48.9687 40.3906 48.3125 36.6875C48.25 36.3594 48.1719 36.0312 48.0781 35.7031Z" fill="#3B4144"/>
<path d="M25.0156 36.3281C25.0156 37 24.4531 37.5625 23.7812 37.5625C23.1094 37.5625 22.5469 37 22.5469 36.3281C22.5469 35.6562 23.1094 35.0938 23.7812 35.0938C24.4531 35.0938 25.0156 35.6719 25.0156 36.3281Z" fill="#3B4144"/>
</svg>
