<svg width="24" height="23" viewBox="0 0 24 23" fill="none" xmlns="http://www.w3.org/2000/svg">
<path d="M11.7422 0.380371C5.47266 0.380371 0.355469 5.44363 0.355469 11.6902C0.355469 17.9369 5.45313 23.0001 11.7422 23.0001C18.0312 23.0001 23.1289 17.9369 23.1289 11.6902C23.1094 5.46303 18.0117 0.399771 11.7422 0.380371ZM11.7422 21.099C6.50781 21.099 2.26953 16.8699 2.26953 11.6902C2.26953 6.5106 6.52734 2.28152 11.7422 2.28152C16.957 2.28152 21.2148 6.5106 21.2148 11.6902C21.2148 16.8699 16.957 21.099 11.7422 21.099Z" fill="white"/>
<path d="M16.1562 8.87728L12.6601 10.2934C12.3867 10.1188 12.0742 10.0218 11.7422 10.0218C10.8047 10.0218 10.0625 10.7784 10.0625 11.6902C10.0625 12.6214 10.8242 13.3585 11.7422 13.3585C12.543 13.3585 13.2266 12.796 13.3828 12.0394L16.8789 10.6232C17.3672 10.4292 17.6015 9.86665 17.4062 9.38166C17.2109 8.89668 16.6445 8.66389 16.1562 8.87728Z" fill="white"/>
</svg>
