<svg width="59" height="59" viewBox="0 0 59 59" fill="none" xmlns="http://www.w3.org/2000/svg">
<path d="M8.25549 44.7983C7.77725 44.7983 7.38954 45.186 7.38954 45.6642C7.38954 46.2054 6.94929 46.6456 6.40813 46.6456C5.86697 46.6456 5.42672 46.2054 5.42672 45.6642C5.42672 45.1231 5.86697 44.6828 6.40813 44.6828C6.88637 44.6828 7.27408 44.2951 7.27408 43.8169C7.27408 43.3386 6.88637 42.9509 6.40813 42.9509C4.912 42.9509 3.69482 44.1681 3.69482 45.6642C3.69482 47.1604 4.912 48.3775 6.40813 48.3775C7.90426 48.3775 9.12144 47.1604 9.12144 45.6642C9.12144 45.186 8.73372 44.7983 8.25549 44.7983Z" fill="#FD3400"/>
<path d="M43.3546 44.7983C42.8764 44.7983 42.4887 45.186 42.4887 45.6642C42.4887 46.2054 42.0484 46.6456 41.5073 46.6456C40.9661 46.6456 40.5258 46.2054 40.5258 45.6642C40.5258 45.1231 40.9661 44.6828 41.5073 44.6828C41.9855 44.6828 42.3732 44.2951 42.3732 43.8169C42.3732 43.3386 41.9855 42.9509 41.5073 42.9509C40.0111 42.9509 38.7939 44.1681 38.7939 45.6642C38.7939 47.1604 40.0111 48.3775 41.5073 48.3775C43.0034 48.3775 44.2206 47.1604 44.2206 45.6642C44.2206 45.186 43.8328 44.7983 43.3546 44.7983Z" fill="#FD3400"/>
<path d="M17.4924 44.7983C17.265 44.7983 17.041 44.8907 16.8805 45.0524C16.7188 45.2128 16.6265 45.4368 16.6265 45.6643C16.6265 45.8917 16.7188 46.1157 16.8805 46.2762C17.041 46.4379 17.265 46.5302 17.4924 46.5302C17.7199 46.5302 17.9439 46.4379 18.1044 46.2762C18.266 46.1157 18.3584 45.8917 18.3584 45.6643C18.3584 45.4368 18.266 45.2128 18.1044 45.0524C17.9439 44.8907 17.7199 44.7983 17.4924 44.7983Z" fill="#3B4144"/>
<path d="M15.6452 16.1643C15.4178 16.1643 15.1938 16.2567 15.0333 16.4183C14.8717 16.5788 14.7793 16.8028 14.7793 17.0303C14.7793 17.2577 14.8717 17.4817 15.0333 17.6422C15.1938 17.8038 15.4178 17.8962 15.6452 17.8962C15.8727 17.8962 16.0967 17.8038 16.2572 17.6422C16.4188 17.4817 16.5112 17.2577 16.5112 17.0303C16.5112 16.8028 16.4188 16.5788 16.2572 16.4183C16.0967 16.2567 15.8739 16.1643 15.6452 16.1643Z" fill="#3B4144"/>
<path d="M30.4241 29.0957C30.1966 29.0957 29.9726 29.1881 29.8121 29.3497C29.6505 29.5102 29.5581 29.7342 29.5581 29.9617C29.5581 30.1903 29.6505 30.4131 29.8121 30.5736C29.9726 30.7352 30.1966 30.8276 30.4241 30.8276C30.6515 30.8276 30.8755 30.7352 31.036 30.5736C31.1976 30.4131 31.29 30.1903 31.29 29.9617C31.29 29.7342 31.1976 29.5102 31.036 29.3497C30.8755 29.1881 30.6515 29.0957 30.4241 29.0957Z" fill="#3B4144"/>
<path d="M54.7511 13.9474C54.9116 14.109 55.1356 14.2014 55.363 14.2014C55.5905 14.2014 55.8145 14.109 55.975 13.9474C56.1366 13.7869 56.229 13.5629 56.229 13.3354C56.229 13.108 56.1366 12.884 55.975 12.7235C55.8145 12.5619 55.5905 12.4695 55.363 12.4695C55.1356 12.4695 54.9116 12.5619 54.7511 12.7235C54.5894 12.884 54.4971 13.108 54.4971 13.3354C54.4971 13.5629 54.5894 13.7869 54.7511 13.9474Z" fill="#3B4144"/>
<path d="M56.229 19.9631V16.8674C57.8176 16.4778 59 15.0425 59 13.3354C59 11.33 57.3684 9.69841 55.363 9.69841H48.615C48.3093 9.14825 47.7227 8.77473 47.0499 8.77473H5.42661V8.717C5.42661 7.73028 4.62382 6.92749 3.63699 6.92749H1.78963C0.802793 6.92749 0 7.73028 0 8.71712V21.6486C0 22.6355 0.802793 23.4383 1.78963 23.4383H3.63699C4.62382 23.4383 5.42661 22.6355 5.42661 21.6486V17.8962H12.1112C12.2588 18.5042 12.5624 19.0656 13.0064 19.5335C13.6902 20.254 14.6519 20.6672 15.6449 20.6672H18.9067L24.0157 27.4793V32.7328C24.0157 33.211 24.4034 33.5987 24.8816 33.5987H26.7896C26.7883 33.6179 26.7867 33.6369 26.7867 33.6565V37.3512C26.7867 37.8923 26.3464 38.3326 25.8053 38.3326H22.0528V36.4395C22.0528 36.437 22.0528 36.4344 22.0528 36.4319V36.4275C22.0528 36.4219 22.0521 36.4165 22.052 36.411C22.0516 36.3887 22.0509 36.3663 22.0487 36.3438C22.0473 36.3293 22.0448 36.3154 22.0427 36.3012C22.0406 36.2874 22.0391 36.2738 22.0364 36.2601C22.0321 36.2376 22.0263 36.2155 22.0202 36.1937C22.0188 36.1887 22.018 36.1836 22.0165 36.1786L22.0153 36.1746C22.0145 36.1721 22.0138 36.1694 22.013 36.1669L19.6404 28.2584C19.2933 27.1018 18.2489 26.3247 17.0414 26.3247H4.56067C3.06454 26.3247 1.84736 27.5419 1.84736 29.0381V35.704C0.774736 36.0663 0 37.0815 0 38.2748V45.6643C0 49.1977 2.8746 52.0723 6.40802 52.0723C9.6476 52.0723 12.3317 49.6553 12.7559 46.5302H13.8552V46.588C13.8552 48.0841 15.0724 49.3013 16.5685 49.3013H22.1106C23.6067 49.3013 24.8239 48.0841 24.8239 46.588V46.5302H35.16C35.5843 49.6553 38.2683 52.0723 41.5078 52.0723C44.7504 52.0723 47.4365 49.6508 47.8569 46.5215C47.8951 46.5266 47.9339 46.5302 47.9736 46.5302H51.6683C52.6551 46.5302 53.4579 45.7274 53.4579 44.7406V32.7328C53.4579 32.7257 53.457 32.719 53.4569 32.7121C53.4564 32.694 53.4557 32.6759 53.4541 32.6576C53.4531 32.6451 53.4515 32.6328 53.4498 32.6205C53.4479 32.6053 53.4457 32.5902 53.4429 32.5749C53.44 32.5595 53.4366 32.5443 53.4329 32.5292C53.43 32.5174 53.4272 32.5057 53.4238 32.4939C53.4187 32.476 53.4127 32.4586 53.4064 32.4412C53.4041 32.4349 53.4026 32.4284 53.4002 32.422L49.6928 22.7826C49.0202 21.0339 47.3096 19.8591 45.4361 19.8591H38.7368C37.2407 19.8591 36.0235 21.0763 36.0235 22.5724V29.0958H33.9557C33.7018 28.0605 33.0036 27.1984 32.0754 26.7231C32.0481 26.6806 32.0175 26.6397 31.9819 26.6014L23.8985 17.8962H47.0499C47.7227 17.8962 48.3093 17.5227 48.615 16.9725H54.4971V20.7249C54.4971 21.2032 54.8848 21.5909 55.363 21.5909C56.4135 21.5909 57.2681 22.4455 57.2681 23.496C57.2681 24.5464 56.4135 25.4011 55.363 25.4011C54.3126 25.4011 53.4579 24.5464 53.4579 23.496C53.4579 23.0177 53.0702 22.63 52.592 22.63C52.1137 22.63 51.726 23.0177 51.726 23.496C51.726 25.5014 53.3576 27.133 55.363 27.133C57.3684 27.133 59 25.5014 59 23.496C59 21.7888 57.8177 20.3526 56.229 19.9631ZM57.2681 13.3355C57.2681 14.386 56.4135 15.2406 55.363 15.2406H48.8395V11.4304H55.363C56.4135 11.4304 57.2681 12.2851 57.2681 13.3355ZM3.69472 21.6486C3.69472 21.6783 3.66666 21.7064 3.63699 21.7064H1.78963C1.75995 21.7064 1.7319 21.6783 1.7319 21.6486V8.71712C1.7319 8.68745 1.75995 8.65939 1.78963 8.65939H3.63699C3.66666 8.65939 3.69472 8.68745 3.69472 8.71712V9.6408V17.0302V21.6486ZM5.42661 10.5067H47.0499C47.0818 10.5067 47.1076 10.5327 47.1076 10.5645V12.4696H25.1057C24.1342 12.4696 23.2209 12.8478 22.5341 13.5349L21.1416 14.9274L20.7964 14.5555C20.1106 13.817 19.1391 13.3934 18.1312 13.3934H15.8017C14.0199 13.3934 12.5174 14.5662 12.1146 16.1644H5.42661V10.5067ZM19.3395 18.9353H15.6448C15.117 18.9353 14.6261 18.7244 14.2626 18.3413C13.8994 17.9586 13.7147 17.456 13.7425 16.9264C13.7946 15.9331 14.7182 15.125 15.8016 15.125H18.1311C18.6591 15.125 19.168 15.3469 19.5272 15.7337L29.3616 26.3247H25.3146L20.0323 19.2817C19.8687 19.0636 19.6121 18.9353 19.3395 18.9353ZM1.7319 38.2748C1.7319 37.7337 2.17215 37.2934 2.71331 37.2934H4.56067C5.0389 37.2934 5.42661 36.9057 5.42661 36.4275C5.42661 35.9493 5.0389 35.5615 4.56067 35.5615H3.57926V29.0381C3.57926 28.4969 4.0195 28.0566 4.56067 28.0566H17.0414C17.4782 28.0566 17.856 28.3378 17.9815 28.7561L20.0231 35.5615H8.25573C7.77749 35.5615 7.38978 35.9493 7.38978 36.4275C7.38978 36.9057 7.77749 37.2934 8.25573 37.2934H20.3209V42.0273H16.5685H11.9501C11.865 42.0273 11.7829 42.0401 11.7052 42.063C10.5507 40.3701 8.60719 39.2563 6.40802 39.2563C4.56482 39.2563 2.90208 40.0395 1.7319 41.2895V38.2748ZM6.40802 50.3404C3.82957 50.3404 1.7319 48.2427 1.7319 45.6643C1.7319 43.0858 3.82957 40.9882 6.40802 40.9882C8.98647 40.9882 11.0841 43.0858 11.0841 45.6643C11.0841 48.2427 8.98647 50.3404 6.40802 50.3404ZM12.7559 44.7983C12.7075 44.4421 12.6315 44.0945 12.5269 43.7592H14.0397C13.9211 44.0638 13.8553 44.3946 13.8553 44.7406V44.7983H12.7559ZM23.092 46.588C23.092 47.1291 22.6517 47.5694 22.1106 47.5694H16.5685C16.0273 47.5694 15.5871 47.1291 15.5871 46.588V44.7406C15.5871 44.1994 16.0273 43.7592 16.5685 43.7592H22.1106C22.6517 43.7592 23.092 44.1994 23.092 44.7406V46.588ZM24.6395 43.7592H35.389C35.2844 44.0945 35.2085 44.4421 35.1601 44.7983H24.8239V44.7406C24.8239 44.3946 24.7581 44.0638 24.6395 43.7592ZM41.5078 50.3404C38.9294 50.3404 36.8317 48.2427 36.8317 45.6643C36.8317 43.0858 38.9294 40.9882 41.5078 40.9882C44.0863 40.9882 46.184 43.0858 46.184 45.6643C46.184 48.2427 44.0863 50.3404 41.5078 50.3404ZM50.9759 30.9431H43.3552C42.3047 30.9431 41.4501 30.0885 41.4501 29.0381V25.2856H48.7999L50.9759 30.9431ZM51.726 40.1799H50.7446C50.7149 40.1799 50.6869 40.1519 50.6869 40.1222V39.1985C50.6869 39.1689 50.7149 39.1408 50.7446 39.1408H51.726V40.1799ZM37.7554 22.5723C37.7554 22.0311 38.1956 21.5909 38.7368 21.5909H45.436C46.598 21.5909 47.6591 22.3197 48.0762 23.4042L48.1337 23.5537H40.5841C40.1059 23.5537 39.7182 23.9414 39.7182 24.4197V29.0381C39.7182 31.0435 41.3498 32.675 43.3552 32.675H51.642L51.726 32.8936V37.4089H50.7446C49.7578 37.4089 48.955 38.2117 48.955 39.1985V40.1222C48.955 41.109 49.7578 41.9118 50.7446 41.9118H51.726V44.7406C51.726 44.7724 51.7002 44.7983 51.6683 44.7983H47.9736C47.9339 44.7983 47.8951 44.8019 47.8569 44.8071C47.4365 41.6778 44.7504 39.2563 41.5078 39.2563C40.1072 39.2563 38.811 39.7092 37.7554 40.4746V22.5723ZM36.0266 42.0303C36.0064 42.0289 35.9863 42.0273 35.9658 42.0273H22.1106H22.0528V40.0645H25.8053C27.3014 40.0645 28.5186 38.8473 28.5186 37.3512V33.6565C28.5186 33.6369 28.517 33.6179 28.5157 33.5987H30.4237C32.1308 33.5987 33.566 32.4163 33.9557 30.8277H36.0235V41.9696C36.0235 41.9901 36.0251 42.0102 36.0266 42.0303ZM30.4237 31.8668H25.7476V28.0566H30.4237C31.4741 28.0566 32.3288 28.9113 32.3288 29.9617C32.3288 31.0122 31.4741 31.8668 30.4237 31.8668ZM47.0499 16.1643H22.3538L23.7586 14.7595C24.1185 14.3996 24.5969 14.2015 25.1057 14.2015H47.1076V16.1066C47.1076 16.1383 47.0818 16.1643 47.0499 16.1643Z" fill="#3B4144"/>
</svg>
