<svg width="32" height="32" viewBox="0 0 32 32" fill="none" xmlns="http://www.w3.org/2000/svg">
<path d="M27.2635 4.73435C24.3875 1.84913 20.3997 0.0673828 15.9976 0.0673828C11.6041 0.0673828 7.61664 1.84913 4.73162 4.73428C1.8466 7.6193 0.0644531 11.598 0.0644531 16.0002C0.0644531 20.4023 1.84653 24.3813 4.73162 27.2662C7.61664 30.1513 11.6041 31.933 15.9976 31.933C20.3997 31.933 24.3875 30.1513 27.2635 27.2662C30.1484 24.3813 31.9307 20.4023 31.9307 16.0002C31.9307 11.598 30.1485 7.61937 27.2635 4.73435ZM26.3903 26.3927C23.7257 29.0485 20.0559 30.6894 15.9976 30.6894C11.9482 30.6894 8.26934 29.0485 5.61402 26.3927C2.95824 23.7287 1.30857 20.0586 1.30857 16.0003C1.30857 11.9421 2.95824 8.27201 5.61402 5.61655C8.26934 2.9611 11.9482 1.31111 15.9976 1.31111C20.056 1.31111 23.7257 2.9611 26.3903 5.61655C29.0458 8.27201 30.6867 11.9421 30.6867 16.0003C30.6867 20.0586 29.0458 23.7287 26.3903 26.3927Z" fill="white"/>
<path d="M15.9978 10.8481C13.157 10.8481 10.8457 13.1594 10.8457 16.0003C10.8457 18.8501 13.157 21.1527 15.9978 21.1527C18.8474 21.1527 21.15 18.8501 21.15 16.0003C21.15 13.1594 18.8474 10.8481 15.9978 10.8481ZM15.9978 20.0851C13.7482 20.0851 11.9219 18.2587 11.9219 16.0003C11.9219 13.7506 13.7481 11.9155 15.9978 11.9155C18.2563 11.9155 20.0826 13.7506 20.0826 16.0003C20.0826 18.2587 18.2564 20.0851 15.9978 20.0851Z" fill="white"/>
<path d="M20.2145 8.03125H11.7894C9.71624 8.03125 7.96484 9.7096 7.96484 11.792V20.2174C7.96484 22.29 9.71624 23.7695 11.7894 23.7695H20.2145C22.2965 23.7695 24.0352 22.29 24.0352 20.2174V11.792C24.0352 9.7096 22.2965 8.03125 20.2145 8.03125ZM23.1055 20.2174C23.1055 21.7785 21.7761 22.8398 20.2145 22.8398H11.7894C10.2276 22.8398 8.96094 21.7785 8.96094 20.2174V11.792C8.96094 10.2302 10.2276 8.96094 11.7894 8.96094H20.2145C21.7761 8.96094 23.1055 10.2302 23.1055 11.792V20.2174Z" fill="white"/>
<path d="M21.0528 10.1514C20.594 10.1514 20.2236 10.5218 20.2236 10.9804C20.2236 11.4393 20.594 11.8098 21.0528 11.8098C21.5116 11.8098 21.8823 11.4393 21.8823 10.9804C21.8823 10.5218 21.5116 10.1514 21.0528 10.1514Z" fill="white"/>
</svg>
