<svg width="61" height="61" viewBox="0 0 61 61" fill="none" xmlns="http://www.w3.org/2000/svg">
<path d="M8.53509 45.3621C8.04064 45.3621 7.63979 45.763 7.63979 46.2574C7.63979 46.8169 7.18461 47.2721 6.62511 47.2721C6.0656 47.2721 5.61043 46.8169 5.61043 46.2574C5.61043 45.6979 6.0656 45.2428 6.62511 45.2428C7.11955 45.2428 7.52041 44.8419 7.52041 44.3475C7.52041 43.853 7.11955 43.4521 6.62511 43.4521C5.07826 43.4521 3.81982 44.7106 3.81982 46.2574C3.81982 47.8043 5.07826 49.0627 6.62511 49.0627C8.17195 49.0627 9.43039 47.8043 9.43039 46.2574C9.43039 45.763 9.02954 45.3621 8.53509 45.3621Z" fill="#FD3400"/>
<path d="M38.1404 44.407C37.6459 44.407 37.2451 44.8078 37.2451 45.3023C37.2451 46.3883 36.3615 47.2719 35.2754 47.2719C34.1893 47.2719 33.3057 46.3883 33.3057 45.3023C33.3057 44.2162 34.1893 43.3326 35.2754 43.3326C35.7699 43.3326 36.1707 42.9317 36.1707 42.4373C36.1707 41.9428 35.7699 41.542 35.2754 41.542C33.202 41.542 31.5151 43.2289 31.5151 45.3023C31.5151 47.3757 33.202 49.0625 35.2754 49.0625C37.3488 49.0625 39.0357 47.3757 39.0357 45.3023C39.0357 44.8078 38.6348 44.407 38.1404 44.407Z" fill="#FD3400"/>
<path d="M60.1047 47.272H45.7798C45.7469 47.272 45.7202 47.2453 45.7202 47.2123V30.9775C45.7202 29.9572 44.8902 29.1272 43.8699 29.1272H41.9002V9.96773C41.9002 8.94744 41.0702 8.11743 40.0499 8.11743H34.32C33.8255 8.11743 33.4247 8.51829 33.4247 9.01273C33.4247 9.50718 33.8255 9.90804 34.32 9.90804H36.2896V34.9073C35.9543 34.8752 35.6161 34.8572 35.275 34.8572C34.9326 34.8572 34.5943 34.8742 34.2603 34.9066V30.091C34.2603 29.2646 34.0418 28.4494 33.6286 27.7335L26.5974 15.5545C25.8145 13.9361 24.1525 12.8924 22.3527 12.8924H8.53523C6.98838 12.8924 5.72994 14.1508 5.72994 15.6977V31.9922H4.71526C2.64186 31.9922 0.95499 33.6791 0.95499 35.7525V42.4374C0.95499 42.546 0.975284 42.6498 1.01086 42.7461C0.371372 43.7649 0 44.9682 0 46.2574C0 49.9105 2.97205 52.8826 6.62524 52.8826C9.63621 52.8826 12.1827 50.8629 12.9856 48.1076H25.9091C25.9112 48.1076 25.9131 48.1079 25.9151 48.1079C25.9169 48.1079 25.9186 48.1076 25.9203 48.1076H28.235C29.3527 50.9023 32.086 52.8826 35.2748 52.8826C39.4546 52.8826 42.8551 49.4821 42.8551 45.3024C42.8551 43.9616 42.5036 42.7018 41.8903 41.6079C41.896 41.5668 41.9001 41.5251 41.9001 41.4824V37.7094C41.9016 37.6793 41.9015 37.6491 41.9001 37.6191V30.9178H43.8697C43.9027 30.9178 43.9294 30.9446 43.9294 30.9775V47.2123C43.9294 48.2326 44.7594 49.0626 45.7797 49.0626H60.1046C60.599 49.0626 60.9999 48.6618 60.9999 48.1673C60.9999 47.6729 60.5991 47.272 60.1047 47.272ZM40.0499 9.90804C40.0829 9.90804 40.1096 9.93478 40.1096 9.96773V29.1272H38.0802V9.90804H40.0499ZM24.9958 16.3557C25.0062 16.3775 25.0174 16.399 25.0296 16.42L31.8143 28.1722H18.0254V17.6076C18.0254 17.1132 17.6246 16.7123 17.1301 16.7123C16.6357 16.7123 16.2348 17.1132 16.2348 17.6076V28.1722H14.2652C13.1791 28.1722 12.2955 27.2886 12.2955 26.2026V14.683H22.3527C23.477 14.683 24.5145 15.3395 24.9958 16.3557ZM7.52055 15.6977C7.52055 15.1382 7.97572 14.683 8.53523 14.683H10.5049V26.2026C10.5049 28.276 12.1918 29.9628 14.2652 29.9628H32.41C32.4287 29.9628 32.447 29.9612 32.4654 29.9601C32.4673 30.0037 32.4697 30.0473 32.4697 30.091V35.2402C31.2352 35.5849 30.0925 36.151 29.0867 36.8931L26.1264 33.9326C24.875 32.6813 23.2113 31.9922 21.4417 31.9922H7.52055V15.6977ZM6.62524 51.092C3.95939 51.092 1.79061 48.9232 1.79061 46.2574C1.79061 43.5915 3.95939 41.4227 6.62524 41.4227C9.2911 41.4227 11.4599 43.5915 11.4599 46.2574C11.4599 48.9232 9.2911 51.092 6.62524 51.092ZM6.62524 39.6321C5.17712 39.6321 3.83703 40.1004 2.7456 40.8917V35.7525C2.7456 34.6664 3.6292 33.7828 4.71526 33.7828H21.4417C22.7331 33.7828 23.9471 34.2857 24.8603 35.1988L27.7389 38.0774C25.938 39.9549 24.8297 42.5016 24.8297 45.3024C24.8297 45.6414 24.8469 45.9803 24.8795 46.317H13.2491C13.2492 46.2971 13.2506 46.2774 13.2506 46.2574C13.2505 42.6042 10.2784 39.6321 6.62524 39.6321ZM26.6817 46.317C26.6426 45.981 26.6204 45.642 26.6204 45.3024C26.6204 40.5302 30.5027 36.6478 35.275 36.6478C37.018 36.6478 38.6799 37.1576 40.1096 38.1242V39.4688C38.7965 38.3787 37.111 37.7221 35.275 37.7221C31.0952 37.7221 27.6947 41.1226 27.6947 45.3024C27.6947 45.6466 27.7199 45.9848 27.7646 46.317H26.6817ZM35.275 51.092C32.0825 51.092 29.4853 48.4948 29.4853 45.3024C29.4853 42.1099 32.0825 39.5127 35.275 39.5127C38.4674 39.5127 41.0646 42.1099 41.0646 45.3024C41.0646 48.4948 38.4674 51.092 35.275 51.092ZM40.1096 36.0396C39.4615 35.6997 38.782 35.4324 38.0802 35.2376V30.9178H40.1096V36.0396Z" fill="#3B4144"/>
</svg>
