<svg width="50" height="50" viewBox="0 0 50 50" fill="none" xmlns="http://www.w3.org/2000/svg">
<path d="M48.5738 42.9297C48.5738 42.9297 48.5542 42.9297 48.5738 42.9297H48.5542C48.5347 42.8907 48.5152 42.8516 48.4761 42.8321L41.3472 34.1211C46.6402 25.4883 45.3511 14.1602 38.1636 6.93363C29.5503 -1.67965 15.5269 -1.71872 6.87456 6.89456C-1.69965 15.5274 -1.68012 29.5508 6.95269 38.1446C14.1597 45.3321 25.4878 46.6407 34.1402 41.3282L42.8121 48.418C42.8511 48.4571 42.9292 48.5352 42.9683 48.5547C43.73 49.1992 44.648 49.5313 45.566 49.5313C46.5035 49.5313 47.4214 49.1992 48.2027 48.5547L48.5933 48.1836C48.6519 48.125 48.7105 48.0469 48.7496 47.9688C49.8628 46.4844 49.8238 44.3946 48.5738 42.9297ZM47.0699 46.836C47.0503 46.8555 47.0308 46.8946 47.0113 46.9141L46.855 47.0508C46.0933 47.6953 44.9996 47.6953 44.2183 47.0313L44.1597 46.9727C44.1402 46.9532 44.1207 46.9336 44.0816 46.9141L34.8238 39.336C34.648 39.1797 34.4136 39.1016 34.1988 39.1016C34.0035 39.1016 33.8082 39.1602 33.6324 39.2774L33.5543 39.336C25.6441 44.5117 15.0386 43.418 8.33941 36.7383C0.507377 28.9258 0.487845 16.1719 8.30034 8.28128C16.1519 0.468784 28.9058 0.507846 36.7378 8.33988C43.4175 15.0391 44.5113 25.6446 39.3355 33.5547L39.2769 33.6524C39.0425 34.0235 39.0621 34.4922 39.3355 34.8243L46.9136 44.0821C46.9527 44.1211 46.9917 44.1602 47.0113 44.1992L47.0308 44.2188C47.6949 44.9805 47.7144 46.0742 47.0699 46.836Z" fill="white"/>
<path d="M22.5195 35.0195C15.6445 35.0195 10.0586 29.4336 10.0586 22.5586C10.0586 16.3867 14.4922 11.2305 20.4883 10.2734V8.26172C13.3594 9.25781 8.06641 15.293 8.06641 22.5586C8.06641 30.5273 14.5508 37.0117 22.5195 37.0117C29.7852 37.0117 35.8398 31.7187 36.8164 24.5898H34.8047C33.8477 30.5859 28.6914 35.0195 22.5195 35.0195Z" fill="white"/>
<path d="M23.9844 8.18359L22.8906 8.06641V22.1875H37.0117L36.8945 21.0937C36.2109 14.2969 30.7813 8.86719 23.9844 8.18359ZM24.8828 20.1953V10.332C29.8633 11.2891 33.7891 15.2344 34.7461 20.1953H24.8828Z" fill="white"/>
</svg>
