<svg width="47" height="47" viewBox="0 0 47 47" fill="none" xmlns="http://www.w3.org/2000/svg">
<path d="M5.46875 5.48053V46.1934C5.46875 46.6258 5.81931 46.9764 6.25178 46.9764H36.0035C36.4357 46.9764 36.7862 46.6258 36.7862 46.1934V13.3101C36.7862 13.2927 36.7778 13.2779 36.7762 13.2608C36.7724 13.1921 36.7588 13.1244 36.7362 13.0596C36.7275 13.0344 36.7214 13.0102 36.7104 12.9857C36.6724 12.9006 36.6195 12.8229 36.5537 12.7564L28.7244 4.92713C28.658 4.86101 28.5799 4.80812 28.4942 4.77039C28.4706 4.76039 28.4467 4.75201 28.4222 4.74459C28.3568 4.72202 28.2887 4.70847 28.2194 4.70396C28.2062 4.70622 28.1907 4.69783 28.1742 4.69783H6.25178C5.81931 4.69783 5.46875 5.04806 5.46875 5.48053ZM34.1134 12.5271H28.9569V7.3707L34.1134 12.5271ZM7.03448 6.26356H27.3912V13.3101C27.3912 13.7423 27.7418 14.0928 28.1739 14.0928H35.2205V45.4107H7.03448V6.26356Z" fill="white"/>
<path d="M38.353 40.7128V42.2786H40.7018C41.1342 42.2786 41.4848 41.9283 41.4848 41.4958V0.783026C41.4848 0.350556 41.1342 0 40.7018 0H10.95C10.5175 0 10.167 0.350556 10.167 0.783026V3.13178H11.733V1.56573H39.9187V40.7128H38.353Z" fill="white"/>
<path d="M11.7344 15.6589H30.5247V17.2246H11.7344V15.6589Z" fill="white"/>
<path d="M11.7344 10.9611H17.9979V12.5271H11.7344V10.9611Z" fill="white"/>
<path d="M11.7344 20.3564H24.2615V21.9225H11.7344V20.3564Z" fill="white"/>
<path d="M25.8271 20.3564H30.5247V21.9225H25.8271V20.3564Z" fill="white"/>
<path d="M11.7344 25.0539H30.5247V26.62H11.7344V25.0539Z" fill="white"/>
<path d="M11.7344 34.4493H30.5247V36.0153H11.7344V34.4493Z" fill="white"/>
<path d="M18.7793 29.7518H30.5234V31.3175H18.7793V29.7518Z" fill="white"/>
<path d="M11.7344 29.7518H17.2149V31.3175H11.7344V29.7518Z" fill="white"/>
<path d="M11.7344 39.1471H14.8662V40.7128H11.7344V39.1471Z" fill="white"/>
<path d="M16.4307 39.1471H30.5235V40.7128H16.4307V39.1471Z" fill="white"/>
</svg>
