<svg width="52" height="52" viewBox="0 0 52 52" fill="none" xmlns="http://www.w3.org/2000/svg">
<path d="M51 47.6667H1V51.0001H51V47.6667Z" stroke="#3B4144" stroke-width="1.6" stroke-linejoin="round"/>
<path d="M22.667 41.8333V36H29.3337V41.8417" stroke="#3B4144" stroke-width="1.6" stroke-linejoin="round"/>
<path d="M24.333 36V21" stroke="#3B4144" stroke-width="1.6" stroke-linejoin="round"/>
<path d="M27.667 36V21" stroke="#3B4144" stroke-width="1.6" stroke-linejoin="round"/>
<path d="M40.9163 47.6667C40.7242 46.7255 40.2129 45.8797 39.4688 45.2723C38.7247 44.6648 37.7936 44.3331 36.833 44.3333C36.5271 44.3355 36.2225 44.3719 35.9247 44.4417C35.7417 43.4906 35.2332 42.633 34.4865 42.0162C33.7398 41.3994 32.8015 41.062 31.833 41.062C30.8645 41.062 29.9262 41.3994 29.1795 42.0162C28.4328 42.633 27.9243 43.4906 27.7413 44.4417C27.4435 44.3719 27.1389 44.3355 26.833 44.3333C26.5533 44.3355 26.2743 44.3634 25.9997 44.4167C25.725 44.3634 25.4461 44.3355 25.1663 44.3333C24.8605 44.3355 24.5558 44.3719 24.258 44.4417C24.0751 43.4906 23.5665 42.633 22.8198 42.0162C22.0731 41.3994 21.1348 41.062 20.1663 41.062C19.1978 41.062 18.2596 41.3994 17.5129 42.0162C16.7661 42.633 16.2576 43.4906 16.0747 44.4417C15.7769 44.3719 15.4722 44.3355 15.1663 44.3333C14.2058 44.3331 13.2747 44.6648 12.5306 45.2723C11.7865 45.8797 11.2751 46.7255 11.083 47.6667" stroke="#3B4144" stroke-width="1.6" stroke-linejoin="round"/>
<path d="M33.4997 1H18.4997C17.5792 1 16.833 1.74619 16.833 2.66667V19.3333C16.833 20.2538 17.5792 21 18.4997 21H33.4997C34.4202 21 35.1663 20.2538 35.1663 19.3333V2.66667C35.1663 1.74619 34.4202 1 33.4997 1Z" stroke="#3B4144" stroke-width="1.6" stroke-linejoin="round"/>
<path d="M31.8337 4.33325H20.167V17.6666H31.8337V4.33325Z" stroke="#FD282F" stroke-width="1.6" stroke-linejoin="round"/>
<path d="M23.5 7.66675H26.8333C27.2754 7.66675 27.6993 7.84234 28.0118 8.1549C28.3244 8.46746 28.5 8.89139 28.5 9.33341C28.5 9.77544 28.3244 10.1994 28.0118 10.5119C27.6993 10.8245 27.2754 11.0001 26.8333 11.0001H23.5V7.66675Z" stroke="#FD282F" stroke-width="1.6" stroke-linejoin="round"/>
<path d="M23.5 11V15.1667" stroke="#FD282F" stroke-width="1.6" stroke-linejoin="round"/>
</svg>
