<svg width="21" height="21" viewBox="0 0 21 21" fill="none" xmlns="http://www.w3.org/2000/svg">
<g clip-path="url(#clip0)">
<path d="M5.24387 7.86182V6.54932L7.8623 3.92432L4.58762 0.643066L0.643555 4.58057V8.51807L12.4561 20.3306H16.3936L16.4198 20.3568L20.3573 16.4193L20.3311 16.3931L17.0498 13.1118L14.4248 15.7368H13.1123L5.24387 7.86182Z" stroke="white" stroke-width="1.5" stroke-linejoin="round"/>
<path d="M19.0312 8.53125H12.4688V1.96875" stroke="white" stroke-width="1.5" stroke-linejoin="round"/>
<path d="M12.4688 8.53125L20.3438 0.65625" stroke="white" stroke-width="1.5" stroke-linejoin="round"/>
</g>
<defs>
<clipPath id="clip0">
<rect width="21" height="21" fill="white"/>
</clipPath>
</defs>
</svg>
