<svg width="53" height="45" viewBox="0 0 53 45" fill="none" xmlns="http://www.w3.org/2000/svg">
<g clip-path="url(#clip0)">
<path d="M40.7799 11.1501L29.8986 0.269033C29.7263 0.0967675 29.4928 0 29.2493 0H8.41247C5.95136 0 3.94922 2.00232 3.94922 4.46343V40.5368C3.94922 42.9976 5.95144 45 8.41255 45H36.5856C39.0467 45 41.0488 42.9979 41.0488 40.5368V11.7996C41.0488 11.556 40.9522 11.3224 40.7799 11.1501ZM30.1678 3.13583L37.9135 10.8813H32.7946C32.0928 10.8813 31.433 10.608 30.937 10.112C30.4412 9.61601 30.1678 8.95639 30.1678 8.25475V3.13583ZM39.2121 40.5365C39.2121 41.985 38.0338 43.1632 36.5856 43.1632H8.41247C6.96412 43.1632 5.78586 41.985 5.78586 40.5365V4.46343C5.78594 3.01508 6.96422 1.83674 8.41247 1.83674H28.3311V8.25459C28.3311 9.44681 28.7952 10.5677 29.6381 11.4106C30.4813 12.2537 31.6022 12.7179 32.7946 12.7179H39.2121V40.5365Z" fill="#3B4144"/>
<path d="M24.1772 24.207H23.766C23.2589 24.207 22.8477 24.6182 22.8477 25.1254C22.8477 25.6326 23.2589 26.0439 23.766 26.0439H24.1772C24.6843 26.0439 25.0955 25.6326 25.0955 25.1254C25.0955 24.6182 24.6843 24.207 24.1772 24.207Z" fill="#3B4144"/>
<path d="M20.7956 23.9497H11.8754C11.3683 23.9497 10.957 24.3609 10.957 24.8681C10.957 25.3753 11.3683 25.7866 11.8754 25.7866H20.7956C21.3027 25.7866 21.7139 25.3753 21.7139 24.8681C21.7139 24.3609 21.3028 23.9497 20.7956 23.9497Z" fill="#3B4144"/>
<path d="M33.1241 18.3037H11.8754C11.3683 18.3037 10.957 18.7149 10.957 19.2221C10.957 19.7293 11.3683 20.1404 11.8754 20.1404H33.1241C33.6312 20.1404 34.0424 19.7293 34.0424 19.2221C34.0424 18.7149 33.6312 18.3037 33.1241 18.3037Z" fill="#3B4144"/>
</g>
<path d="M34.9706 28.9768C34.9954 28.9148 35.0168 28.8613 35.0331 28.8204L34.9706 28.9768ZM34.9706 28.9768C35.5774 28.9792 36.4517 28.9833 37.2118 28.9879C39.0746 28.9991 42.2525 28.9946 45.0248 28.975L45.0248 28.975L45.0393 28.9749C44.9946 28.8635 44.9583 28.773 44.9374 28.7202L34.9706 28.9768ZM44.0109 27.0814L43.5812 27.4898C43.5241 27.4297 43.4804 27.3842 43.4455 27.3486C43.4378 27.3478 43.431 27.3471 43.4253 27.3467L43.4252 27.3467L44.0109 27.0814ZM44.0109 27.0814L43.5812 27.4898C43.9243 27.8508 44.067 27.9734 44.467 28.255L45.0428 27.4374M44.0109 27.0814L45.0428 27.4374M45.0428 27.4374L44.467 28.255C44.6155 28.3596 44.7117 28.429 44.7814 28.4835M45.0428 27.4374L44.7814 28.4835M44.7814 28.4835C44.8347 28.5252 44.8581 28.5472 44.8666 28.5557L44.7814 28.4835ZM35.156 28.5423C35.1515 28.5488 35.1222 28.5968 35.0331 28.8204L35.156 28.5423ZM35.156 28.5423C35.1561 28.5422 35.1563 28.542 35.1564 28.5418L35.156 28.5423ZM39.221 24.9746L39.215 24.9747C37.6919 24.9955 36.1114 25.0248 34.5456 25.1976L34.4096 25.2126L34.2827 25.2636C33.8338 25.4438 33.5186 25.7246 33.2906 25.9708C33.1792 26.0911 33.0802 26.2127 33.0016 26.3096C32.9964 26.3161 32.9912 26.3224 32.9862 26.3286C32.9092 26.4237 32.8527 26.4934 32.7953 26.5575L32.7676 26.5883L32.7427 26.6214C32.3286 27.1686 32.0432 27.7701 31.8184 28.3311C31.4995 28.2478 31.1399 28.2462 30.8013 28.3605C30.7517 28.3747 30.687 28.3894 30.5747 28.4147L30.5741 28.4149C30.4678 28.4388 30.3157 28.4731 30.1643 28.521C29.9114 28.601 29.3325 28.8139 29.0762 29.4327L29.0019 29.6119L29.0001 29.8059C28.9936 30.481 29.4281 30.9353 29.794 31.1625C29.9887 31.2834 30.2089 31.3726 30.4404 31.4243C30.4326 31.4926 30.4238 31.5649 30.4144 31.6424C30.4119 31.6625 30.4094 31.6829 30.4069 31.7036C30.368 32.0249 30.3203 32.4364 30.35 32.8685C30.3541 32.9432 30.3552 33.024 30.3561 33.129C30.3562 33.1357 30.3563 33.1425 30.3563 33.1494C30.3571 33.2459 30.3582 33.3644 30.3639 33.4844C30.3762 33.7433 30.412 34.0811 30.5541 34.4316L30.5954 34.5334V37.5532C30.5954 38.0209 30.8568 38.3547 31.0839 38.534C31.3206 38.721 31.6267 38.8348 31.952 38.8348H33.3782H33.3787C33.7036 38.8347 34.0095 38.721 34.2463 38.5341C34.4733 38.3547 34.7348 38.021 34.7348 37.5532V37.3879H45.2561V37.5532C45.2561 38.021 45.5176 38.3548 45.7447 38.5341C45.9814 38.721 46.2873 38.8347 46.6122 38.8348H46.6127H48.0389H48.0394C48.3644 38.8347 48.6703 38.721 48.907 38.534C49.1341 38.3546 49.3951 38.0212 49.3955 37.554V37.5532V34.532C49.4954 34.3673 49.536 34.2113 49.5549 34.1215C49.5799 34.0024 49.588 33.8855 49.591 33.8418C49.5912 33.8396 49.5913 33.8376 49.5915 33.8358L49.6051 33.7873L49.6107 33.6743C49.6463 32.9588 49.6547 32.1901 49.5584 31.4125C49.7345 31.3714 49.908 31.3102 50.0712 31.2271C50.4336 31.0425 50.8723 30.6752 50.9839 30.0619L51.0163 29.8838L50.9841 29.7056C50.8505 28.9641 50.2156 28.6742 49.9651 28.5766C49.807 28.515 49.6499 28.4721 49.5331 28.442C49.4772 28.4276 49.4338 28.4168 49.3972 28.4077C49.3458 28.3949 49.3077 28.3854 49.2669 28.3739C48.9386 28.271 48.5388 28.2472 48.1756 28.3304C47.9828 27.8411 47.7456 27.3244 47.4226 26.8405L47.4001 26.8068L47.375 26.7751C47.3467 26.7394 47.3168 26.701 47.2853 26.6606C46.9902 26.2819 46.5495 25.7165 45.9005 25.3388L45.7423 25.2467L45.5616 25.2166C45.0486 25.1313 44.5367 25.1009 44.0638 25.0819C43.9216 25.0762 43.7851 25.0715 43.6524 25.067C43.3252 25.0558 43.0211 25.0454 42.7115 25.022L42.6929 25.0206L42.6742 25.0199C41.8087 24.9868 40.9432 24.9727 40.0812 24.9717C39.7941 24.9714 39.5077 24.9724 39.221 24.9746ZM35.3753 28.3753C35.8435 28.0451 36.079 27.8542 36.3908 27.5303L35.3753 28.3753L35.3753 28.3753ZM36.5666 27.3503C36.5747 27.3496 36.5835 27.3489 36.5928 27.3481C36.5893 27.3484 36.5984 27.3483 36.6229 27.3479C36.6642 27.3471 36.7494 27.3457 36.8909 27.3443C37.0906 27.3424 37.3634 27.3407 37.686 27.3394C38.3309 27.3367 39.1698 27.3353 40.0091 27.3353C40.8487 27.3353 41.6877 27.3363 42.3327 27.3386C42.6555 27.3398 42.9283 27.3413 43.1279 27.3431C43.2678 27.3443 43.3524 27.3457 43.3941 27.3464L36.5666 27.3503ZM49.595 33.7939C49.595 33.7939 49.5949 33.7953 49.5946 33.7979C49.5948 33.7952 49.595 33.7939 49.595 33.7939Z" fill="#FD3400" stroke="white" stroke-width="2"/>
<defs>
<clipPath id="clip0">
<rect width="45" height="45" fill="white"/>
</clipPath>
</defs>
</svg>
