<svg width="59" height="59" viewBox="0 0 59 59" fill="none" xmlns="http://www.w3.org/2000/svg">
<path d="M8.27719 36.5566C6.6691 36.5566 5.36084 37.8649 5.36084 39.473C5.36084 41.0811 6.6691 42.3894 8.27719 42.3894C9.88529 42.3894 11.1935 41.0811 11.1935 39.473C11.1935 37.8649 9.88529 36.5566 8.27719 36.5566ZM8.27719 40.6607C7.62231 40.6607 7.08947 40.128 7.08947 39.473C7.08947 38.818 7.6222 38.2853 8.27719 38.2853C8.93218 38.2853 9.46491 38.818 9.46491 39.473C9.46491 40.128 8.93218 40.6607 8.27719 40.6607Z" fill="#FD3400"/>
<path d="M16.4403 36.5566C14.8322 36.5566 13.5239 37.8649 13.5239 39.473C13.5239 41.0811 14.8322 42.3894 16.4403 42.3894C18.0484 42.3894 19.3566 41.081 19.3566 39.473C19.3566 37.8649 18.0484 36.5566 16.4403 36.5566ZM16.4403 40.6607C15.7854 40.6607 15.2526 40.128 15.2526 39.473C15.2526 38.818 15.7853 38.2853 16.4403 38.2853C17.0953 38.2853 17.628 38.8181 17.628 39.473C17.628 40.1279 17.0952 40.6607 16.4403 40.6607Z" fill="#FD3400"/>
<path d="M24.6058 36.5566C22.9977 36.5566 21.6895 37.8649 21.6895 39.473C21.6895 41.0811 22.9977 42.3894 24.6058 42.3894C26.2139 42.3894 27.5222 41.081 27.5222 39.473C27.5222 37.8649 26.2139 36.5566 24.6058 36.5566ZM24.6059 40.6607C23.951 40.6607 23.4182 40.1279 23.4182 39.473C23.4182 38.818 23.9509 38.2853 24.6059 38.2853C25.2609 38.2853 25.7936 38.8181 25.7936 39.473C25.7936 40.1279 25.2608 40.6607 24.6059 40.6607Z" fill="#FD3400"/>
<path d="M58.1919 35.6921C57.1262 34.6431 55.4056 34.6567 54.3567 35.7222C52.2955 37.8159 49.4283 39.0169 46.4904 39.0169H45.4415L43.1553 34.2663C47.2432 32.5843 50.1898 30.1081 51.7121 27.0586C51.8797 26.7231 51.8066 26.3051 51.5348 26.0464C51.5345 26.0461 51.5344 26.0459 51.5342 26.0458C49.2284 23.8551 46.0267 20.4523 39.8875 18.2358C39.4387 18.0738 38.9431 18.3062 38.7809 18.7551C38.6188 19.2041 38.8514 19.6996 39.3003 19.8616C43.1459 21.25 46.0594 23.2288 48.7741 25.8079H27.113L25.0375 22.7803L28.7941 18.963C29.2094 18.5409 29.7874 18.2989 30.3796 18.2989C32.0967 18.2989 33.8257 18.47 35.5182 18.8077C35.9864 18.9016 36.4416 18.5973 36.5349 18.1292C36.6283 17.661 36.3245 17.2058 35.8562 17.1125C34.0527 16.7527 32.2098 16.5703 30.3795 16.5703C29.327 16.5703 28.3002 17.0005 27.562 17.7506L26.1877 19.1472L24.7329 17.8431L26.5178 16.0292C26.8526 15.6889 26.8482 15.1416 26.5081 14.8069C26.1678 14.4721 25.6204 14.4764 25.2858 14.8167L20.4455 19.7353C20.1107 20.0756 20.1151 20.6229 20.4553 20.9576C20.7957 21.2926 21.343 21.2878 21.6775 20.9478L23.519 19.0766L24.9738 20.3808L23.3109 22.0707L21.212 24.1362C21.1586 24.1888 21.088 24.2177 21.0131 24.2177H11.2335L10.7417 23.3979C10.3756 22.7879 9.70608 22.4088 8.99462 22.4088H1.41854C0.636324 22.4086 0 23.045 0 23.8273V26.584C0 26.9841 0.104057 27.3797 0.301107 27.728L4.15662 34.5431C2.17781 34.815 0.648193 36.5159 0.648193 38.5683V40.3764C0.648193 42.6175 2.47132 44.4408 4.71251 44.4408H14.4242C14.9015 44.4408 15.2886 44.0538 15.2886 43.5764C15.2886 43.099 14.9016 42.712 14.4242 42.712H4.71251C3.42465 42.712 2.37682 41.6642 2.37682 40.3763V38.5682C2.37682 37.2803 3.42465 36.2326 4.71251 36.2326H28.1694C29.4572 36.2326 30.5051 37.2803 30.5051 38.5682V40.3763C30.5051 41.6642 29.4572 42.712 28.1694 42.712H18.4577C17.9804 42.712 17.5933 43.099 17.5933 43.5764C17.5933 44.0538 17.9802 44.4408 18.4577 44.4408H28.1694C30.4105 44.4408 32.2337 42.6176 32.2337 40.3764V38.5683C32.2337 37.6994 31.9588 36.8941 31.4925 36.2327H35.4508C35.4774 36.2327 35.5041 36.2315 35.5306 36.229C35.648 36.2182 38.3043 35.9617 41.5293 34.8737L43.5232 39.017H38.4048C36.9095 39.017 35.6929 40.2336 35.6929 41.729C35.6929 43.2244 36.9096 44.4409 38.4048 44.4409H46.4904C50.8721 44.4409 55.1481 42.65 58.222 39.5273C59.271 38.4617 59.2574 36.7414 58.1919 35.6921ZM21.013 25.9462V25.9461C21.5444 25.9461 22.0457 25.7409 22.4245 25.3681L23.7926 24.0217L25.4464 26.4344L21.6717 28.9154C21.5347 29.0054 21.3571 29.06 21.1884 29.06H14.4904C14.2681 29.06 14.0656 28.9374 13.9587 28.759L12.271 25.9463H21.013V25.9462ZM35.4067 34.5041C33.1307 34.5041 6.93434 34.5041 6.12067 34.5041L1.80572 26.8767C1.75525 26.7877 1.72875 26.6865 1.72875 26.584V24.1373H8.99462C9.10248 24.1373 9.20388 24.1948 9.25943 24.2872L10.5757 26.4809L12.4763 29.6482C12.8971 30.3496 13.6677 30.7886 14.4904 30.7886H21.1884C21.7125 30.7886 22.2135 30.6277 22.6212 30.3599L26.9163 27.5369H49.4245C45.4133 33.3271 36.0632 34.4336 35.4067 34.5041ZM56.9903 38.3146C54.2392 41.1092 50.4122 42.712 46.4906 42.712H38.4051C37.8629 42.712 37.4218 42.271 37.4218 41.7287C37.4218 41.1865 37.8628 40.7454 38.4051 40.7454C39.1969 40.7454 45.7025 40.7454 46.4906 40.7454C49.8885 40.7454 53.2049 39.3565 55.5888 36.9347C55.9691 36.5482 56.5931 36.5436 56.9794 36.9238C57.3655 37.3044 57.3705 37.9282 56.9903 38.3146Z" fill="#3B4144"/>
</svg>
