<svg width="46" height="51" viewBox="0 0 46 51" fill="none" xmlns="http://www.w3.org/2000/svg">
<path d="M16.75 8H9.25C8.91848 8 8.60054 8.1317 8.36612 8.36612C8.1317 8.60054 8 8.91848 8 9.25C8 9.58152 8.1317 9.89946 8.36612 10.1339C8.60054 10.3683 8.91848 10.5 9.25 10.5H16.75C17.0815 10.5 17.3995 10.3683 17.6339 10.1339C17.8683 9.89946 18 9.58152 18 9.25C18 8.91848 17.8683 8.60054 17.6339 8.36612C17.3995 8.1317 17.0815 8 16.75 8Z" fill="white"/>
<path d="M16.75 15.5H9.25C8.91848 15.5 8.60054 15.6317 8.36612 15.8661C8.1317 16.1005 8 16.4185 8 16.75C8 17.0815 8.1317 17.3995 8.36612 17.6339C8.60054 17.8683 8.91848 18 9.25 18H16.75C17.0815 18 17.3995 17.8683 17.6339 17.6339C17.8683 17.3995 18 17.0815 18 16.75C18 16.4185 17.8683 16.1005 17.6339 15.8661C17.3995 15.6317 17.0815 15.5 16.75 15.5Z" fill="white"/>
<path d="M16.75 23H9.25C8.91848 23 8.60054 23.1317 8.36612 23.3661C8.1317 23.6005 8 23.9185 8 24.25C8 24.5815 8.1317 24.8995 8.36612 25.1339C8.60054 25.3683 8.91848 25.5 9.25 25.5H16.75C17.0815 25.5 17.3995 25.3683 17.6339 25.1339C17.8683 24.8995 18 24.5815 18 24.25C18 23.9185 17.8683 23.6005 17.6339 23.3661C17.3995 23.1317 17.0815 23 16.75 23Z" fill="white"/>
<path d="M40.5 35.5H38C38.065 33.7279 38.7559 32.0361 39.95 30.725C43 28.45 45.5 25.8 45.5 21.75C45.4977 18.8651 44.3897 16.0909 42.4039 13.9982C40.4182 11.9055 37.7058 10.6535 34.825 10.5L25.125 0.875C24.9739 0.696675 24.7741 0.566341 24.55 0.5H4.25C3.25544 0.5 2.30161 0.895088 1.59835 1.59835C0.895088 2.30161 0.5 3.25544 0.5 4.25V46.75C0.5 47.7446 0.895088 48.6984 1.59835 49.4016C2.30161 50.1049 3.25544 50.5 4.25 50.5H31.75C32.7446 50.5 33.6984 50.1049 34.4017 49.4016C35.1049 48.6984 35.5 47.7446 35.5 46.75V45.5H44.25C44.5815 45.5 44.8995 45.3683 45.1339 45.1339C45.3683 44.8995 45.5 44.5815 45.5 44.25V40.5C45.5 39.1739 44.9732 37.9021 44.0355 36.9645C43.0979 36.0268 41.8261 35.5 40.5 35.5ZM43 21.75C42.8293 23.1879 42.3331 24.5679 41.549 25.7852C40.7649 27.0025 39.7136 28.025 38.475 28.775C36.6502 30.547 35.5837 32.9577 35.5 35.5H33C32.9362 32.9684 31.8972 30.5591 30.1 28.775C28.8474 28.0334 27.7815 27.0146 26.9841 25.7968C26.1867 24.579 25.679 23.1946 25.5 21.75C25.5 19.4294 26.4219 17.2038 28.0628 15.5628C29.7038 13.9219 31.9294 13 34.25 13C36.5706 13 38.7962 13.9219 40.4372 15.5628C42.0781 17.2038 43 19.4294 43 21.75V21.75ZM31.225 10.5H25.5V4.775L31.225 10.5ZM33 46.75C33 47.0815 32.8683 47.3995 32.6339 47.6339C32.3995 47.8683 32.0815 48 31.75 48H4.25C3.91848 48 3.60054 47.8683 3.36612 47.6339C3.1317 47.3995 3 47.0815 3 46.75V4.25C3 3.91848 3.1317 3.60054 3.36612 3.36612C3.60054 3.1317 3.91848 3 4.25 3H23V11.75C23 12.0815 23.1317 12.3995 23.3661 12.6339C23.6005 12.8683 23.9185 13 24.25 13H27.275C25.947 14.0401 24.8722 15.368 24.1317 16.8836C23.3912 18.3992 23.0043 20.0631 23 21.75C23 25.8 25.625 28.45 28.475 30.725C29.6801 32.0357 30.3955 33.7225 30.5 35.5H28C26.6739 35.5 25.4021 36.0268 24.4645 36.9645C23.5268 37.9021 23 39.1739 23 40.5V44.25C23 44.5815 23.1317 44.8995 23.3661 45.1339C23.6005 45.3683 23.9185 45.5 24.25 45.5H33V46.75ZM43 43H25.5V40.5C25.5 39.837 25.7634 39.2011 26.2322 38.7322C26.7011 38.2634 27.337 38 28 38H40.5C41.163 38 41.7989 38.2634 42.2678 38.7322C42.7366 39.2011 43 39.837 43 40.5V43Z" fill="white"/>
<path d="M13 30.5C12.0111 30.5 11.0444 30.7932 10.2222 31.3427C9.39991 31.8921 8.75904 32.673 8.3806 33.5866C8.00217 34.5002 7.90315 35.5055 8.09608 36.4755C8.289 37.4454 8.76521 38.3363 9.46447 39.0355C10.1637 39.7348 11.0546 40.211 12.0246 40.4039C12.9945 40.5969 13.9998 40.4978 14.9134 40.1194C15.8271 39.741 16.6079 39.1001 17.1573 38.2779C17.7068 37.4556 18 36.4889 18 35.5C18 34.1739 17.4732 32.9021 16.5355 31.9645C15.5979 31.0268 14.3261 30.5 13 30.5ZM13 38C12.5055 38 12.0222 37.8534 11.6111 37.5787C11.2 37.304 10.8795 36.9135 10.6903 36.4567C10.5011 35.9999 10.4516 35.4972 10.548 35.0123C10.6445 34.5273 10.8826 34.0819 11.2322 33.7322C11.5819 33.3826 12.0273 33.1445 12.5123 33.048C12.9972 32.9516 13.4999 33.0011 13.9567 33.1903C14.4135 33.3795 14.804 33.7 15.0787 34.1111C15.3534 34.5222 15.5 35.0055 15.5 35.5C15.5 36.163 15.2366 36.7989 14.7678 37.2678C14.2989 37.7366 13.663 38 13 38Z" fill="white"/>
</svg>
