<svg width="37" height="47" viewBox="0 0 37 47" fill="none" xmlns="http://www.w3.org/2000/svg">
<path d="M3 1C1.34315 1 0 2.34315 0 4V34.4948C0 35.5623 0.567208 36.5493 1.48948 37.0868L16.9895 46.1197C17.923 46.6637 19.077 46.6637 20.0105 46.1197L35.5105 37.0868C36.4328 36.5493 37 35.5623 37 34.4948V4C37 2.34315 35.6569 1 34 1H3Z" fill="#FD3400"/>
<path d="M15.4993 23.5469H14.0391V24.8946H15.4993V23.5469Z" fill="white"/>
<path d="M18.3313 23.5469H16.8711V24.8946H18.3313V23.5469Z" fill="white"/>
<path d="M21.1614 23.5469H19.7012V24.8946H21.1614V23.5469Z" fill="white"/>
<path d="M30 15.8301V14.4824H29.7163H28.5985H25.8732L24.725 16.6574H18.2023C16.9145 16.6574 15.8304 17.545 15.529 18.7405H14.6071C13.3193 18.7405 12.2352 19.6281 11.9337 20.8236H7V21.4974C7 25.3688 10.1496 28.5184 14.0209 28.5184H29.9995V23.9972H29.0092V20.0882H30V18.7405H29.0092H28.0206H27.4683L29.0048 15.8301H30V15.8301ZM18.2023 18.0051H24.0135L23.8448 18.3246L23.6252 18.7405H16.9648C17.2041 18.3027 17.6692 18.0051 18.2023 18.0051ZM28.6517 25.3449V27.1707H14.0209C11.1206 27.1707 8.72172 24.9831 8.3875 22.1713H11.8501H20.281C22.2999 22.1713 24.1831 23.2585 25.1954 25.0084L25.3901 25.3448H28.6517V25.3449ZM27.6615 20.0882V23.9972H26.1545C24.8627 22.0301 22.6474 20.8236 20.281 20.8236H13.3695C13.6089 20.3858 14.0738 20.0882 14.607 20.0882H15.4453H22.9138H24.4377H26.7568H27.6615ZM25.9444 18.7405H25.1492L25.785 17.5362L26.249 16.6574L26.6857 15.8301H27.4808L25.9444 18.7405Z" fill="white"/>
</svg>
