<svg width="45" height="55" viewBox="0 0 45 55" fill="none" xmlns="http://www.w3.org/2000/svg">
<g filter="url(#filter0_d)">
<path d="M7 1C5.34315 1 4 2.34315 4 4V34.4948C4 35.5623 4.56721 36.5493 5.48948 37.0868L20.9895 46.1197C21.923 46.6638 23.077 46.6637 24.0105 46.1197L39.5105 37.0868C40.4328 36.5493 41 35.5623 41 34.4948V4C41 2.34315 39.6569 1 38 1H7Z" fill="#FD3400"/>
<path d="M31.2083 14.9583H28.0417V11.7917C28.0417 11.3547 27.687 11 27.25 11H17.75C17.313 11 16.9583 11.3547 16.9583 11.7917V14.9583H13.7917C13.3547 14.9583 13 15.313 13 15.75V29.2083C13 29.6453 13.3547 30 13.7917 30H31.2083C31.6453 30 32 29.6453 32 29.2083V15.75C32 15.313 31.6453 14.9583 31.2083 14.9583ZM18.5417 12.5833H26.4583V14.9583H18.5417V12.5833ZM14.5833 28.4167V21.2917H15.375C15.812 21.2917 16.1667 20.937 16.1667 20.5C16.1667 20.063 15.812 19.7083 15.375 19.7083H14.5833V16.5417H30.4167V19.7083H18.5417C18.1047 19.7083 17.75 20.063 17.75 20.5C17.75 20.937 18.1047 21.2917 18.5417 21.2917H19.3333V23.6667C19.3333 24.1037 19.688 24.4583 20.125 24.4583H24.875C25.312 24.4583 25.6667 24.1037 25.6667 23.6667V21.2917H30.4167V28.4167H14.5833ZM20.9167 21.2917H24.0833V22.875H20.9167V21.2917Z" fill="white"/>
</g>
<defs>
<filter id="filter0_d" x="0" y="1" width="45" height="53.5277" filterUnits="userSpaceOnUse" color-interpolation-filters="sRGB">
<feFlood flood-opacity="0" result="BackgroundImageFix"/>
<feColorMatrix in="SourceAlpha" type="matrix" values="0 0 0 0 0 0 0 0 0 0 0 0 0 0 0 0 0 0 127 0"/>
<feOffset dy="4"/>
<feGaussianBlur stdDeviation="2"/>
<feColorMatrix type="matrix" values="0 0 0 0 0 0 0 0 0 0 0 0 0 0 0 0 0 0 0.25 0"/>
<feBlend mode="normal" in2="BackgroundImageFix" result="effect1_dropShadow"/>
<feBlend mode="normal" in="SourceGraphic" in2="effect1_dropShadow" result="shape"/>
</filter>
</defs>
</svg>
